3ef63de6d7726c5ebfe678caf386db0df0524af15475f59e66
238de147bbaacb801567d2f7f580f1a6f0e759449bd2fa2e8c
8254c337a7a9684b3f922db242d9b8940803e5fd4f03db9c48
2caf1c953960f30281f2dfc8d9735053b3f0f5af3846438436
3a7b2948b0d9a53838350b53e840fe5e415790a3bdab03b232
65857f729aa55b16e426adec36838f3a53d8696617f4551252
ff6a05e6af8edc30d1822e2c8e5b2fc2dfcec12a0e734c67fb
20a196e3784da02d6098b70cb8989bbdd0d438b9dd5ddfd906
5c11a0d7ccc222d6bdf0ebfce9322791a9cdb64842fa026b99
63a63d3c2e467fa26134abfed05fd5fe6f35a4d6449089ab50
a7c7291949cb937e95edb9ee38e61f827e8c3d2a394ef57dfc
80f5ab8d11520735542d4334f06a26716708b255e4ef20d8ca
49d917f2a2320a76c6e5d58e9ade245f5aa9c3d3b16f33f3e4
0d188c5c4dd3109ab18ea3e09c175fe06680e6852e0c34976d
7417232e2f8632546fc14518d26ada21381d7773f2ecc063cc
8cf98e288bbd76e20100c6f29b9b3ab91408025a1f640911c5
35a9b5f280ddd6190b8f3f9c6721bba9640308187ca65d1f07
69ffa572a8c5a2e6767943e1934ec6c409ea46e3fcb435c278
44eae520c9189c399aeeb1c185bc0d4ba50c496f86d0790a46
c0d81358ea7bfc818fb259e4af39fc10b0d0f549278ed02ee6
4e68abf1a7df58c6f76cb4b284b878a538d179459556862cf3
873a4338f98d69e0bb350a42563da9ebd5ea5d3d7147fb7b0c
f27100398e7d676024e8710909fec4d91e4a95662f12af9cf6
e1fc1d5551aa0ba68dcf6a9f07eb4d24e87e36ced55d71f164
12495cfcf47266d4dda81a896329180bfac6ba0ca6cd4e78f6
b1b92f79c859e07334495582fb90579151f026dde0e0f1c085
fa6f8841fdf13896c2e30f8a9e65d10e5e5047a04871823f50
acffdc7f3760393fe0d5be6d88995b0acf73700f3dfdb2c560
afaa878e7eed9e674681b2359c3dba878e8dbf3ffb3b79927d
ce97fee6a5112cb9b4859d914683e1373f8d0a8536324f038d
ad23d305189e5073be8f9c74a1e1052faedc292770c37cb3a2
d2c444d5a68c89ad12c46a5ee7a01d6e7893c5dabd18d13df2
76cd5da266fff521fb9e33156e7f4eafa592d9529224eb18cf
71dd2333f50a0c5584a87be8974025265695e426e9609b48d8
44823c39e01f6b6c19e275c29771ec235b183b0b928a74a5e7
764de74d3d27501692812c39be0687d43525443ab7673b2da0
307b73775e52fe65d8ce377f2fe2c45b46f941f4e37abcfa02
93f639524d0efca6d1cad91b327f00c7cf8a6777990c43cd0f
54b49213b1708887ae3ef9b7070595f4615e1339e1da9f825a
a3ecfe8fcdb54c75ca6980a248fa52da927ace852636e5d30f
