7fe118ba09450ba8cf3a87a3a1587d933fd050ffec2e516a98
1fa866c996c96f6e43a3d275b7966110cffa9d51525f27221b
05fff24e3057a90fe2ace71a1511c7efd652e56c1c82640ceb
d16c1c92039547e782e7ff86fb1fdbdccf803e237bd1598573
d51470e4c2d6994b90440d216e9fb55630ca9a5cab95953d17
463a77c037239897c45eb0c80c15d8f73da7c00d0882835cea
436999efa9821f391c9a2b01dd3634ac7e46c1caca96a1ad85
11eeaa6d005f9032fae923c0c838d75d02dfa24e9b0641403d
b5bc0ce0748786ff212c166d9bc6d67dadb47cc286113a5f09
e5445f657968c351ca332396411d284a8ba53d9ef273fcfb3c
441a8bef8ea6ec2e4fb39caf36f6aeb0d8112be75bd4ac4b65
5883c302a75dfe89888a6170ad2e5d4950cc31feeed2e37c5a
e238562c70956b20da9ef270c64babbe8cb7660854596d820f
e7b35ad88e5b21b1294331d741c674d3a743938008a7fe0d50
16230d7f11a413aa17b4d9a466b0f7de035c2f7e430370f67b
1a49b5095147644f567d4fe08a3939c5e76dd43b82b512d423
f7ca300e886d732bee982fb6ee15173e972f2eb10b0b325e47
dd9c84cbd6bfb81c2d4f6a92d18e0af38825a8ad595aa009f7
d02a489ce839e15af0fc5d08b32f2e77798d22f37b6de1b4f7
b76d62d828e8609cffdbe6202b1dd98486d925b73cd27b6ec8
11be750a3598a057ee208ef1426ac7bb6b97e1504ba856610e
63b33df6b73005132382421680016eb61574d9fc30cd10362f
0bfa3375f7ff58add82ddcb9daa5f559bd5d23e85bf2bcabe2
fba675322c072b5f527207601aa8547674523ccf6389bdfe78
478e848c26a9b4069df6062e44bde42dd0179dd255cddafb92
e5268e6b4bd359055aa61aa580bfb5b22f403146bff1651ec7
393fb12028b3d65269926c4a4550a73eb187d7013d10610470
d231d07b8c81b2f4a6796219dc949176d4a85639a67300bbde
cb18161a28deecb52851ad3d168c1f2a2722fb487b2961970a
757d9213ec0c4fc60a4bcea7448c7711b679b5bb5b737580f9
f2b27a7fa468bf580c8113ac274b01af010ec2dc345f1b29e6
716a8537d850fa0d0bed8bb699300509531b8af94bbd5aa244
04c37de9806670cd9a76753323520ffae094503bfbeed3664e
91f67769094426d9bd572b5d069f39d844b7426d9ae6082661
c8e7e50887ee6887290241c9f795efa0e2f4b6dc6cd6ea4e8c
7860937741822c6519a09b3707aaeffe12d3ffcc0e1226ac32
bbef8d8507943424a3e23da360a42d0eac79058ede5da7a1b5
ad0b12d84b2095041c815ff1b2b16aa96829f7a68a7e0b1dfd
ce64a4530549f3edbfcd9e7dca6ae107964857bae7df3b871f
164583b8a77e58c1f2783b2823b06de885d6dbd94f513b9b73
