b971179400fe9f924b35c16cd6248283c4a00dc3d3ff1b06e0
95322406a2acfdf5a1c586ebfecb4345c9a33f437fcec987a1
8b38224d4c9877254e88d2680a4154b21af55cfa5e9bb48004
d256ed77b7064d53327add953191b3bf49cacdbc774f727f2f
286fb318d33016f6239881305adbdbde5111d7a56ed211fc66
7c7949abc4aa7fb01a26024d9133463727722690bcc86974e7
7586edd61985261301f3bb0ca9ffe29fe8a070e5a162249c67
d9172108c62cef5646ec5c838eb1c1426a2ea58ee9af276449
f0f71d1a91ba3827aa949f90b0fb75a1aa898a591cdffc14e7
01c4b6c0fb61a76f6db2919db82ca3ec27eeafe6e3978b9e9b
5f05e8fa5722e48be0da316b27090b82d2ec80c9a09bea38c2
d85c5abf1df17dbc2b4ffb91466a128c597304b025ddb885fb
51c113b32fd80ce349ede82ed176f1bff7086e36de15b27c8d
5a18bb15810d28d69b65a1982d427ece97f3daac04d9c6b824
736c1aded4e79bf6174189c6796966d0af4ab7526af21c47d0
f6e85cee69d1d3e089d6a86cf900d360ca2a0903dd06524266
612d7f259e60bf8b4c3d4aba7ec5fe9facc0c58f36b5fb27dd
b22ded071ae28cadcee6150b661cffc183c4b29bae105d08e0
736c55accfcfb98ade3cf022571e7884b5c42802cc0a29c97e
86a6a66b643a90de383201b3e252721975fbb0f147abb88a7e
9195c8bc5057b7246a694f3add3520e8d1f23e2680481e328f
b206c1001059ce5d5e4ac94c731baee7e159805f1e3a40406c
b6aa5b6ecf2bc62406d1be1667f20bfae8ba456e30fb453cc2
a94585b99828d11d0d1e708f748883607068a98546b283b17c
a18c92d80d055191f247baf7b643da86db46c138620b3cb3f7
639772093ece3d9b1b958c99111b9f3dd05e617522aa301da8
cc74c0ddaf95d536618f3aab957fab3c888d1cbcb617447dcd
71d943d6321c43d147e6358217105e1d9c9e8f7f951ac779d4
70f6f0e6a479a57d49c4b7f3f292961b1aba667bcaaf4fde0a
6c205581402192f423f0aa2b43aaa43f1f26f7cf91590bc1bb
116711ab64985815cb86c0e630343f2e2b8924143c7cd3dfed
513511dc4c2057a4ab705aad7237331bda4bd86ada1b7cc68c
a104fbfe0989c171599d13b8653545f3253341039de2811a75
1e50fac6972a5a7b0ef69ae37a20feeb30654311d81621bde8
9f7d094e85224a87f439b79382893bc1af3460bae27971222f
dab43c1f235e486d15b2fb50374f0e45f9c3cfb9869c572376
69e24b39f651ba095a3db231c6abadfd00b1328171d608dea1
0af6d5eb614c0abcf6271fede39388c98ccd218dee13d48c2e
f4739358886a5a9d73c79e3af4a4f3493765e156d7080feaf9
136d1376c1a48807171a5e4b3a39ae0709a86b128d48a0f096
