d87f27d6fc1279d6b298c5b49dd40df301abb69c4e4b264023
96f6b37b705e1e9ce66839accc409e275efd3e421fff634114
db8569770a4f313eb12701b5dede7e23da30244558e972b4dd
f2ff831ef8f7ddb80a98de1cee74cbfdab7b5966c050a3bb3a
9eca55a5379d8baea3323e99c041805fed964f2e7a997292f8
0e0d229c071c4fbc8d092f7c625529bfdec06dcb7abcd9c612
d70edd4d5dcc4f4fa1bca69e1f6f5edaf1f242ba1f1c6f673e
095f6ff4579a6e20e67dffeaa1c360a8caf28f1fea6572322f
2602c8a512a682effe17908ffbbb2a0ca11a87b95a1e14732a
db50aec7ffa79c8b09087ac823c29ad0daee57d9568debe681
8f56faa2c34baad406d8d711cfa6733b796494d8e1b1f8ceec
b145098149c9e8f42cd3cde5453b6c17c7da74b9463492f729
411eab51f3ec5171e75010280a10c95f00f0956fd5a4526122
21e0777bd06b2070bd962decff88f48214cbb15a7008f9a27c
f25133db1a6c47572832043ecb1303efa5697ec138a8c93dde
e4fb20f11f0796359ec7b9e68950835a75332ecb5a085f3b28
e9e81d4433fb280343086411e6512770a02584a90cc2d28ac6
f63d0df9a8c7264916c3afcd9860d18f996b9682d9f33567f0
8456f2b46b2db24945a53d66bd505cd30c68f5e07863aa5a4e
2e3c0040058e7e320e9be0b9a18c236e6c6aef1d382c982e21
07abc40be99fbe4e7672adf1a70272d2fa86cc8edeb9e59fa8
b36dd807a7b247be5cb6d8e413c8dafa1992f2f9dd1fad8903
47ab968b9d04333ee4eff52f4ed25b81fdddd1dfbc335ae3de
61e88c12b29a9d053a921027288b4c5f0d5f0d9ede5a847961
33cf12afc374083308d051c1ba07d56e10f6985eed00e266da
657ac292194287af93aa159b4d3d7dcefced7edbc7de0d3440
3d2206e6a40b2b0064c7e47123b5c0119546bfea476f31efeb
e1bf670e780546037a71b9150019b651eef66f23ff03466654
6357b657dda55f46696678ae4080f50539185ac667e49824ac
e250289e8f71270f1a573380d4d2385a62a31d6c8b9087a3e0
36badd21050d72a8b6edd9e1d9be306ba858e0979baaaf0618
c694e21d4359d01f3e56c9868a416368cd87119b826728e4f2
815d15e6fce3fd243b9585790a8cff9543cb51c441a7f59c3a
785a7f9876c16366ca554a943c8c3f6d35a876be4759821488
638e5559b7be0b6635b95b0809584e1c36d2b565465c5b723c
e33d4cda7ee7eb2667133471a9fd066445d38ba956defb506a
97e287652b0c97e87a6af17748997c7816b5b1aa0abf5d17df
e01105cc28af0d1f11277c477c80d1619c36de0cf47a31331d
c0bfabb606586617e657a5bac460d33617bc90fdb998269e34
0790b5208d2313304904769f84d5ef294de567ec07da311ee3
